…
Once the traffic data is available, the `tidy_directional` function can
be used for formatting the traffic data:

``` r
dir_data <- data |>
  tidy_directional()
```

    ## Linking to GEOS 3.11.2, GDAL 3.6.2, PROJ 9.2.0; sf_use_s2() is TRUE

``` r
dir_data
```

    ## # A tibble: 5,760 × 10
    ##    segment_id uptime timezone      date       datetime              day    hr
    ##         <dbl>  <dbl> <chr>         <date>     <dttm>              <dbl> <int>
    ##  1 9000003890  0.762 Europe/London 2023-03-25 2023-03-25 07:00:00     6     7
    ##  2 9000003890  0.762 Europe/London 2023-03-25 2023-03-25 07:00:00     6     7
    ##  3 9000003890  0.762 Europe/London 2023-03-25 2023-03-25 07:00:00     6     7
    ##  4 9000003890  0.762 Europe/London 2023-03-25 2023-03-25 07:00:00     6     7
    ##  5 9000003890  0.762 Europe/London 2023-03-25 2023-03-25 07:00:00     6     7
    ##  6 9000003890  0.762 Europe/London 2023-03-25 2023-03-25 07:00:00     6     7
    ##  7 9000003890  0.762 Europe/London 2023-03-25 2023-03-25 07:00:00     6     7
    ##  8 9000003890  0.762 Europe/London 2023-03-25 2023-03-25 07:00:00     6     7
    ##  9 9000003890  0.764 Europe/London 2023-03-25 2023-03-25 08:00:00     6     8
    ## 10 9000003890  0.764 Europe/London 2023-03-25 2023-03-25 08:00:00     6     8
    ## # ℹ 5,750 more rows
    ## # ℹ 3 more variables: road_dir <chr>, type <chr>, flow <dbl>
…
